<?xml version="1.0" encoding="UTF-8" standalone="no"?>
<!-- Created with Inkscape (http://www.inkscape.org/) -->

<svg
   xmlns:dc="http://purl.org/dc/elements/1.1/"
   xmlns:cc="http://creativecommons.org/ns#"
   xmlns:rdf="http://www.w3.org/1999/02/22-rdf-syntax-ns#"
   xmlns:svg="http://www.w3.org/2000/svg"
   xmlns="http://www.w3.org/2000/svg"
   xmlns:sodipodi="http://sodipodi.sourceforge.net/DTD/sodipodi-0.dtd"
   xmlns:inkscape="http://www.inkscape.org/namespaces/inkscape"
   width="210mm"
   height="297mm"
   viewBox="0 0 210 297"
   version="1.1"
   id="svg8"
   inkscape:version="0.92.2 5c3e80d, 2017-08-06"
   sodipodi:docname="drop.svg">
  <defs
     id="defs2" />
  <sodipodi:namedview
     id="base"
     pagecolor="#ffffff"
     bordercolor="#666666"
     borderopacity="1.0"
     inkscape:pageopacity="0.0"
     inkscape:pageshadow="2"
     inkscape:zoom="0.35"
     inkscape:cx="417.54896"
     inkscape:cy="519.5939"
     inkscape:document-units="mm"
     inkscape:current-layer="layer1"
     showgrid="false"
     inkscape:snap-global="false"
     inkscape:window-width="1280"
     inkscape:window-height="685"
     inkscape:window-x="0"
     inkscape:window-y="1"
     inkscape:window-maximized="1" />
  <metadata
     id="metadata5">
    <rdf:RDF>
      <cc:Work
         rdf:about="">
        <dc:format>image/svg+xml</dc:format>
        <dc:type
           rdf:resource="http://purl.org/dc/dcmitype/StillImage" />
        <dc:title></dc:title>
      </cc:Work>
    </rdf:RDF>
  </metadata>
  <g
     inkscape:label="Calque 1"
     inkscape:groupmode="layer"
     id="layer1">
    <path
       style="opacity:1;fill:#00aad4;fill-opacity:1;stroke:#000000;stroke-width:1.5875;stroke-miterlimit:4;stroke-dasharray:none;stroke-opacity:1"
       d="m 124.51389,160.28602 c 0,25.4514 -15.41484,34.44217 -27.185025,34.44217 -10.258284,0 -28.318953,-9.36875 -28.318953,-34.82015 0,-12.7257 11.893035,-26.28822 17.372274,-41.9978 7.126077,-20.431238 10.568702,-51.635444 10.568702,-51.635444 0,0 3.607872,36.724434 9.812752,52.769364 4.60463,11.90693 17.75025,28.51616 17.75025,41.24186 z"
       id="path815"
       inkscape:connector-curvature="0"
       sodipodi:nodetypes="sscscss" />
    <path
       style="opacity:1;fill:#80e5ff;fill-opacity:1;stroke:none;stroke-width:0.70051056;stroke-miterlimit:4;stroke-dasharray:none;stroke-opacity:1"
       d="m 97.512943,79.338998 c 0,0 -1.232434,19.937609 -7.933474,39.467072 -5.152429,15.0162 -16.336392,27.98024 -16.336392,40.14426 0,24.32803 16.98367,33.28321 26.630097,33.28321 1.030326,0 2.090166,-0.075 3.165436,-0.22969 -9.799018,-1.53367 -20.617046,-10.67802 -20.617046,-32.78625 0,-12.16402 5.704938,-25.39533 10.857368,-40.41153 5.662476,-17.05894 2.085032,-21.243977 4.234011,-39.467072 z"
       id="path818"
       inkscape:connector-curvature="0"
       sodipodi:nodetypes="cssscscc" />
  </g>
</svg>
